Second tangram norming sample
…
Compare ratings across the two studies

both_data <- second_data %>%
  filter(pair %in% first_data$pair) %>%
  mutate(experiment = 2) %>%
  bind_rows(mutate(first_data, experiment = 1) %>% 
              filter(pair %in% second_data$pair))

both_data %>%
  group_by(pair, experiment) %>%
  summarise(n = n()) %>%
  spread(experiment, n)

## # A tibble: 45 x 3
## # Groups:   pair [45]
##    pair    `1`   `2`
##    <chr> <int> <int>
##  1 A1 B1    20    20
##  2 A1 E1    20    20
##  3 A1 F1    20    20
##  4 A1 G1    20    20
##  5 A1 H1    20    20
##  6 A1 I1    20    20
##  7 A1 J1    20    20
##  8 A1 K1    20    20
##  9 A1 L1    20    20
## 10 B1 E1    20    20
## # ... with 35 more rows
…
